<?xml version="1.0" encoding="utf-8"?>
<!-- =================================================================================== -->
<!-- |    This document was autogenerated by xacro from rv7fr-dh-zero-table.urdf.xacro | -->
<!-- |    EDITING THIS FILE BY HAND IS NOT RECOMMENDED                                 | -->
<!-- =================================================================================== -->
<!--[ ] Add Gazebo plugin for ros control-->
<!--[ ] Add sensor model plugin -->
<!--[ ] Check the correct limits efforts
     [119.36611817, 107.16168698,  50.92959239,  17.00171377, 12.7323981 ,   3.97887346] -->
<!--[DONE] Check if the transmission matched the joint number -->
<robot name="rv7fr">
  <material name="white">
    <color rgba="1.0 0.980392156863 0.898039215686 1"/>
  </material>
  <material name="silver">
    <color rgba="0.61568627451 0.839215686275 0.941176470588 1"/>
  </material>
  <!--Mathematical constant
  The mathematical constant and 
  the mathematical expression in XACRO 
  URDF use Python. This preclude the
  mathematical expression
  <[End] Mathematical constant-->
  <link name="world"/>
  <link name="table">
    <visual>
      <geometry>
        <mesh filename="package://melfa_description/mesh/rv7fr/rv7fr_table.stl" scale="0.001 0.001 0.001"/>
      </geometry>
      <origin rpy="0 0 0" xyz="0 0 0"/>
      <material name="white"/>
    </visual>
    <collision>
      <origin rpy="0 0 0" xyz="0 0 0"/>
      <geometry>
        <mesh filename="package://melfa_description/mesh/rv7fr/rv7fr_table.stl" scale="0.001 0.001 0.001"/>
      </geometry>
    </collision>
    <!--inertial-->
    <!--xacro:include filename="rv7fr_inertia/base_inertial.urdf.xacro"/-->
    <!--inertial-->
  </link>
  <joint name="flooring" type="fixed">
    <parent link="world"/>
    <child link="table"/>
  </joint>
  <link name="base">
    <visual>
      <geometry>
        <mesh filename="package://melfa_description/mesh/rv7fr/dh_base.stl" scale="0.001 0.001 0.001"/>
      </geometry>
      <origin rpy="0 0 0" xyz="0 0 0"/>
      <material name="white"/>
    </visual>
    <collision>
      <origin rpy="0 0 0" xyz="0 0 0"/>
      <geometry>
        <mesh filename="package://melfa_description/mesh/rv7fr/dh_base.stl" scale="0.001 0.001 0.001"/>
      </geometry>
    </collision>
    <inertial>
      <!--origin
        xyz="-0.11257 -4.1589E-05 0.057533"
        rpy="0 0 0" /-->
      <!-- I am using the density of Alumide (1.36g/cm^3) for this -->
      <!-- The volume of the mesh is 13038.131 cm^3 -->
      <mass value="17.73185816"/>
      <inertia ixx="103.908878848" ixy="6.363055616" ixz="-6.148561408" iyy="139.111661568" iyz="2.115191296" izz="132.604526592"/>
    </inertial>
    <!--inertial-->
  </link>
  <!--Fixed joint-->
  <joint name="joint_w" type="fixed">
    <parent link="table"/>
    <child link="base"/>
    <origin rpy="0 0 0" xyz="0 0 0.955"/>
  </joint>
  <link name="link1">
    <visual>
      <origin rpy="0 0 0" xyz="0 0 0"/>
      <geometry>
        <mesh filename="package://melfa_description/mesh/rv7fr/dh_link1.stl" scale="0.001 0.001 0.001"/>
      </geometry>
      <material name="white"/>
    </visual>
    <inertial>
      <!--origin
        xyz="-0.11257 -4.1589E-05 0.057533"
        rpy="0 0 0" /-->
      <!-- I am using the density of Alumide (1.36g/cm^3) for this -->
      <!-- The volume of the mesh is 6013.742500000 cm^3 -->
      <mass value="8.1786898"/>
      <inertia ixx="90.376159232" ixy="0.016287799" ixz="-1.10389888" iyy="52.040425472" iyz="0.255685056" izz="66.680070144"/>
    </inertial>
    <!--inertial-->
    <collision>
      <origin rpy="0 0 0" xyz="0 0 0"/>
      <geometry>
        <mesh filename="package://melfa_description/mesh/rv7fr/dh_link1.stl" scale="0.001 0.001 0.001"/>
      </geometry>
    </collision>
  </link>
  <joint name="joint1" type="revolute">
    <parent link="base"/>
    <child link="link1"/>
    <origin rpy="0.0 0.0 0.0" xyz="0 0 0.225"/>
    <axis xyz="0 0 1"/>
    <!--Effort in this context is in N.m (revolute joint)-->
    <limit effort="119.36611817" lower="-4.18879020479" upper="4.18879020479" velocity="6.28318530718"/>
    <dynamics damping="0" friction="0"/>
  </joint>
  <transmission name="trans1">
    <type>transmission_interface/SimpleTransmission</type>
    <joint name="joint1">
      <hardwareInterface>hardware_interface/PositionJointInterface</hardwareInterface>
    </joint>
    <actuator name="motor1">
      <hardwareInterface>hardware_interface/PositionJointInterface</hardwareInterface>
      <mechanicalReduction>1</mechanicalReduction>
    </actuator>
  </transmission>
  <link name="link2">
    <visual>
      <origin rpy="0 0 0" xyz="0 0 0"/>
      <geometry>
        <mesh filename="package://melfa_description/mesh/rv7fr/dh_link2.stl" scale="0.001 0.001 0.001"/>
      </geometry>
      <material name="white"/>
    </visual>
    <inertial>
      <!--origin
        xyz="-0.11257 -4.1589E-05 0.057533"
        rpy="0 0 0" /-->
      <!-- I am using the density of Alumide (1.36g/cm^3) for this -->
      <!-- The volume of the mesh is 9326.481 cm^3 -->
      <mass value="12.68401416"/>
      <inertia ixx="51.839111168" ixy="3.830765824" ixz="-1.103037056" iyy="192.674725888" iyz="0.112871744" izz="176.385097728"/>
    </inertial>
    <!--inertial-->
    <collision>
      <origin rpy="0 0 0" xyz="0 0 0"/>
      <geometry>
        <mesh filename="package://melfa_description/mesh/rv7fr/dh_link2.stl" scale="0.001 0.001 0.001"/>
      </geometry>
    </collision>
  </link>
  <joint name="joint2" type="revolute">
    <parent link="link1"/>
    <child link="link2"/>
    <origin rpy="-1.57079632679 -1.57079632679 0.0" xyz="0 0 0.175"/>
    <axis xyz="0 0 1"/>
    <!--Effort in this context is in N.m (revolute joint)-->
    <limit effort="107.16168698" lower="-1.86750229963" upper="2.18166156499" velocity="6.9987703005"/>
    <dynamics damping="0" friction="0"/>
  </joint>
  <transmission name="trans2">
    <type>transmission_interface/SimpleTransmission</type>
    <joint name="joint2">
      <hardwareInterface>hardware_interface/PositionJointInterface</hardwareInterface>
    </joint>
    <actuator name="motor2">
      <hardwareInterface>hardware_interface/PositionJointInterface</hardwareInterface>
      <mechanicalReduction>1</mechanicalReduction>
    </actuator>
  </transmission>
  <link name="link3">
    <visual>
      <origin rpy="0 0 0" xyz="0 0 0"/>
      <geometry>
        <mesh filename="package://melfa_description/mesh/rv7fr/dh_link3.stl" scale="0.001 0.001 0.001"/>
      </geometry>
      <material name="white"/>
    </visual>
    <inertial>
      <!--origin
        xyz="-0.11257 -4.1589E-05 0.057533"
        rpy="0 0 0" /-->
      <!-- I am using the density of Alumide (1.36g/cm^3) for this -->
      <!-- The volume of the mesh is 3836.328250000 cm^3 -->
      <mass value="5.21740642"/>
      <inertia ixx="15.117059072" ixy="-1.406446848" ixz="-0.060891936" iyy="13.858434048" iyz="-0.067995424" izz="17.11241216"/>
    </inertial>
    <!--inertial-->
    <collision>
      <origin rpy="0 0 0" xyz="0 0 0"/>
      <geometry>
        <mesh filename="package://melfa_description/mesh/rv7fr/dh_link3.stl" scale="0.001 0.001 0.001"/>
      </geometry>
    </collision>
  </link>
  <joint name="joint3" type="revolute">
    <parent link="link2"/>
    <child link="link3"/>
    <origin rpy="0 0 -1.57079632679" xyz="0.34 0 0"/>
    <axis xyz="0 0 1"/>
    <!--Effort in this context is in N.m (revolute joint)-->
    <limit effort="50.92959239" lower="0.0" upper="2.72271363311" velocity="7.85398163397"/>
    <dynamics damping="0" friction="0"/>
  </joint>
  <transmission name="trans3">
    <type>transmission_interface/SimpleTransmission</type>
    <joint name="joint3">
      <hardwareInterface>hardware_interface/PositionJointInterface</hardwareInterface>
    </joint>
    <actuator name="motor3">
      <hardwareInterface>hardware_interface/PositionJointInterface</hardwareInterface>
      <mechanicalReduction>1</mechanicalReduction>
    </actuator>
  </transmission>
  <link name="link4">
    <visual>
      <origin rpy="0 0 0" xyz="0 0 0.095"/>
      <geometry>
        <mesh filename="package://melfa_description/mesh/rv7fr/dh_link4.stl" scale="0.001 0.001 0.001"/>
      </geometry>
      <material name="white"/>
    </visual>
    <inertial>
      <!--origin
        xyz="-0.11257 -4.1589E-05 0.057533"
        rpy="0 0 0" /-->
      <!-- I am using the density of Alumide (1.36g/cm^3) for this -->
      <!-- The volume of the mesh is 2815.481250000  cm^3 -->
      <mass value="3.8290545"/>
      <inertia ixx="20.911454208" ixy="0.000388218125" ixz="-0.136878256" iyy="19.643154432" iyz="0.053645312" izz="5.443939328"/>
    </inertial>
    <!--inertial-->
    <collision>
      <origin rpy="0 0 0" xyz="0 0 0.095"/>
      <geometry>
        <mesh filename="package://melfa_description/mesh/rv7fr/dh_link4.stl" scale="0.001 0.001 0.001"/>
      </geometry>
    </collision>
  </link>
  <joint name="joint4" type="revolute">
    <parent link="link3"/>
    <child link="link4"/>
    <origin rpy="-1.57079632679 0 0" xyz="0.05 0 0"/>
    <axis xyz="0 0 1"/>
    <!--Effort in this context is in N.m (revolute joint)-->
    <limit effort="16.2" lower="-3.49065850399" upper="3.49065850399" velocity="5.88175957922"/>
    <dynamics damping="0" friction="0"/>
  </joint>
  <transmission name="trans4">
    <type>transmission_interface/SimpleTransmission</type>
    <joint name="joint4">
      <hardwareInterface>hardware_interface/PositionJointInterface</hardwareInterface>
    </joint>
    <actuator name="motor4">
      <hardwareInterface>hardware_interface/PositionJointInterface</hardwareInterface>
      <mechanicalReduction>1</mechanicalReduction>
    </actuator>
  </transmission>
  <link name="link5">
    <visual>
      <origin rpy="0 0 0" xyz="0 0 0"/>
      <geometry>
        <mesh filename="package://melfa_description/mesh/rv7fr/dh_link5.stl" scale="0.001 0.001 0.001"/>
      </geometry>
      <material name="white"/>
    </visual>
    <inertial>
      <!--origin
        xyz="-0.11257 -4.1589E-05 0.057533"
        rpy="0 0 0" /-->
      <!-- I am using the density of Alumide (1.36g/cm^3) for this -->
      <!-- The volume of the mesh is 586.139875000 cm^3 -->
      <mass value="0.79715023"/>
      <inertia ixx="0.809056896" ixy="-0.015322087" ixz="-0.0005321248125" iyy="0.50428528" iyz="-0.000197501046875" izz="0.90484512"/>
    </inertial>
    <!--inertial-->
    <collision>
      <origin rpy="0 0 0" xyz="0 0 0"/>
      <geometry>
        <mesh filename="package://melfa_description/mesh/rv7fr/dh_link5.stl" scale="0.001 0.001 0.001"/>
      </geometry>
    </collision>
  </link>
  <joint name="joint5" type="revolute">
    <parent link="link4"/>
    <child link="link5"/>
    <origin rpy="1.57079632679 0 0" xyz="0 0 0.3695"/>
    <axis xyz="0 0 1"/>
    <!--Effort in this context is in N.m (revolute joint)-->
    <limit effort="16.2" lower="-2.09439510239" upper="2.09439510239" velocity="7.85398163397"/>
    <dynamics damping="0" friction="0"/>
  </joint>
  <transmission name="trans5">
    <type>transmission_interface/SimpleTransmission</type>
    <joint name="joint5">
      <hardwareInterface>hardware_interface/PositionJointInterface</hardwareInterface>
    </joint>
    <actuator name="motor5">
      <hardwareInterface>hardware_interface/PositionJointInterface</hardwareInterface>
      <mechanicalReduction>1</mechanicalReduction>
    </actuator>
  </transmission>
  <link name="link6">
    <visual>
      <origin rpy="0 0 0" xyz="0 0 0.085"/>
      <geometry>
        <mesh filename="package://melfa_description/mesh/rv7fr/dh_link6.stl" scale="0.001 0.001 0.001"/>
      </geometry>
      <material name="white"/>
    </visual>
    <inertial>
      <!--origin
        xyz="-0.11257 -4.1589E-05 0.057533"
        rpy="0 0 0" /-->
      <!-- I am using the density of Alumide (1.36g/cm^3) for this -->
      <!-- The volume of the mesh is  18.648947266 cm^3 -->
      <mass value="0.0253625682818"/>
      <inertia ixx="0.002339714" ixy="2.550886e-09" ixz="1.4813418945e-05" iyy="0.00230009425" iyz="6.07867e-09" izz="0.00342455025"/>
    </inertial>
    <!--inertial-->
    <collision>
      <origin rpy="0 0 0" xyz="0 0 0.085"/>
      <geometry>
        <mesh filename="package://melfa_description/mesh/rv7fr/dh_link6.stl" scale="0.001 0.001 0.001"/>
      </geometry>
    </collision>
  </link>
  <joint name="joint6" type="revolute">
    <parent link="link5"/>
    <child link="link6"/>
    <origin rpy="-1.57079632679 0 0" xyz="0 0 0"/>
    <axis xyz="0 0 1"/>
    <!--Effort in this context is in N.m (revolute joint)-->
    <limit effort="6.86" lower="-6.28318530718" upper="6.28318530718" velocity="12.5663706144"/>
    <dynamics damping="0" friction="0"/>
  </joint>
  <transmission name="trans6">
    <type>transmission_interface/SimpleTransmission</type>
    <joint name="joint6">
      <hardwareInterface>hardware_interface/PositionJointInterface</hardwareInterface>
    </joint>
    <actuator name="motor6">
      <hardwareInterface>hardware_interface/PositionJointInterface</hardwareInterface>
      <mechanicalReduction>1</mechanicalReduction>
    </actuator>
  </transmission>
  <!-- Dummy/Buffer joint for inverse kinematics -->
  <link name="link_effector"/>
  <joint name="joint_effector" type="fixed">
    <parent link="link6"/>
    <child link="link_effector"/>
    <origin rpy="0 0 0" xyz="0 0 0.085"/>
    <axis xyz="0 0 0"/>
  </joint>
  <link name="realsense_link"/>
  <joint name="realsense_sensor1" type="fixed">
    <parent link="link_effector"/>
    <child link="realsense_link"/>
    <origin rpy="0 -1.57079632679 0" xyz="0 0 0"/>
    <axis xyz="0 0 0"/>
  </joint>
  <link name="realsense_frame"/>
  <joint name="realsense_sensor2" type="fixed">
    <parent link="realsense_link"/>
    <child link="realsense_frame"/>
    <origin rpy="-1.57079632679 0 -1.57079632679" xyz="0 0 0"/>
    <axis xyz="0 0 0"/>
  </joint>
  <gazebo>
    <plugin filename="libgazebo_ros_control.so" name="gazebo_ros_control">
      <robotNamespace>/</robotNamespace>
      <robotSimType>gazebo_ros_control/DefaultRobotHWSim</robotSimType>
    </plugin>
  </gazebo>
  <gazebo reference="realsense_link">
    <sensor name="realsense_sensor" type="depth">
      <update_rate>20</update_rate>
      <camera>
        <horizontal_fov>1.047198</horizontal_fov>
        <image>
          <width>640</width>
          <height>480</height>
          <format>R8G8B8</format>
        </image>
        <clip>
          <near>0.05</near>
          <far>10</far>
        </clip>
      </camera>
      <plugin filename="libgazebo_ros_openni_kinect.so" name="realsense_controller">
        <baseline>0.2</baseline>
        <alwaysOn>true</alwaysOn>
        <updateRate>1.0</updateRate>
        <cameraName>realsense_ir</cameraName>
        <imageTopicName>/realsense_sensor/color/image_raw</imageTopicName>
        <cameraInfoTopicName>/realsense_sensor/color/camera_info</cameraInfoTopicName>
        <depthImageTopicName>/realsense_sensor/depth/image_raw</depthImageTopicName>
        <depthImageInfoTopicName>/realsense_sensor/depth/camera_info</depthImageInfoTopicName>
        <pointCloudTopicName>/realsense_snesor/depth/points</pointCloudTopicName>
        <frameName>realsense_frame</frameName>
        <pointCloudCutoff>0.05</pointCloudCutoff>
        <pointCloudCutoffMax>10.0</pointCloudCutoffMax>
        <distortionK1>0.00000001</distortionK1>
        <distortionK2>0.00000001</distortionK2>
        <distortionK3>0.00000001</distortionK3>
        <distortionT1>0.00000001</distortionT1>
        <distortionT2>0.00000001</distortionT2>
        <CxPrime>0</CxPrime>
        <Cx>0</Cx>
        <Cy>0</Cy>
        <focalLength>0</focalLength>
        <hackBaseline>0</hackBaseline>
      </plugin>
    </sensor>
  </gazebo>
</robot>
